{
    "prepare_queue": {
        "installed": [],
        "uninstalled": []
    },
    "config_munge": {
        "files": {}
    },
    "installed_plugins": {
        "cordova-plugin-console": {
            "PACKAGE_NAME": "com.tapper.bonimli"
        },
        "cordova-plugin-device": {
            "PACKAGE_NAME": "com.tapper.bonimli"
        },
        "cordova-plugin-file": {
            "PACKAGE_NAME": "com.tapper.bonimli"
        },
        "cordova-plugin-splashscreen": {
            "PACKAGE_NAME": "com.tapper.bonimli"
        },
        "cordova-plugin-statusbar": {
            "PACKAGE_NAME": "com.tapper.bonimli"
        },
        "cordova-plugin-whitelist": {
            "PACKAGE_NAME": "com.tapper.bonimli"
        },
        "cordova-plugin-inappbrowser": {
            "PACKAGE_NAME": "com.tapper.bonimli"
        },
        "cordova-plugin-contacts": {
            "PACKAGE_NAME": "com.tapper.bonimli"
        },
        "cordova-plugin-x-socialsharing": {
            "PACKAGE_NAME": "com.tapper.bonimli"
        },
        "ionic-plugin-keyboard": {
            "PACKAGE_NAME": "com.tapper.bonimli"
        },
        "cordova-plugin-camera": {
            "PACKAGE_NAME": "com.tapper.bonimli"
        }
    },
    "dependent_plugins": {
        "cordova-plugin-compat": {
            "PACKAGE_NAME": "com.tapper.bonimli"
        }
    }
}